{
    "version": "2021-07-25",
    "description": "A software distro and building platform for Windows.",
    "homepage": "http://msys2.github.io",
    "license": "GPL-2.0-only|BSD-3-Clause",
    "notes": "Please run 'msys2' now for the MSYS2 setup to complete!",
    "architecture": {
        "64bit": {
            "url": "https://repo.msys2.org/distrib/x86_64/msys2-base-x86_64-20211130.tar.xz",
            "hash": "sha256:cad07ef0ae2492006c9457b26806351607f168c2fb6a71cd002223c2c395bfc7",
            "extract_dir": "msys64"
        },
        "32bit": {
            "url": "https://repo.msys2.org/distrib/i686/msys2-base-i686-20210705.tar.xz",
            "hash": "sha256:00ff768f704d61b9d6a69522ea81ea9b1a3fd3c8669f20f868ad18fc726c8d47",
            "extract_dir": "msys32"
        }
    },
    "bin": [
        [
            "msys2_shell.cmd",
            "msys2",
            "-msys2 -defterm -here -no-start"
        ],
        [
            "msys2_shell.cmd",
            "mingw",
            "-mingw -defterm -here -full-path -no-start"
        ],
        [
            "msys2_shell.cmd",
            "mingw32",
            "-mingw32 -defterm -here -full-path -no-start"
        ],
        [
            "msys2_shell.cmd",
            "mingw64",
            "-mingw64 -defterm -here -full-path -no-start"
        ],
        [
            "msys2_shell.cmd",
            "clang64",
            "-clang64 -defterm -here -full-path -no-start"
        ],
        [
            "msys2_shell.cmd",
            "ucrt64",
            "-ucrt64 -defterm -here -full-path -no-start"
        ]
    ],
    "shortcuts": [
        [
            "msys2.exe",
            "MSYS2"
        ],
        [
            "mingw32.exe",
            "MinGW32"
        ],
        [
            "mingw64.exe",
            "MinGW64"
        ],
        [
            "clang64.exe",
            "Clang64"
        ],
        [
            "ucrt64.exe",
            "UCRT64"
        ]
    ],
    "persist": "home"
}
